<svg width="14" height="13" viewBox="0 0 14 13" fill="none" xmlns="http://www.w3.org/2000/svg">
<path d="M6.07031 1.58203L6.69922 0.980469C6.82682 0.852865 6.98177 0.789062 7.16406 0.789062C7.34635 0.789062 7.5013 0.852865 7.62891 0.980469L12.9336 6.28516C13.0612 6.41276 13.125 6.56771 13.125 6.75C13.125 6.93229 13.0612 7.08724 12.9336 7.21484L7.62891 12.5195C7.5013 12.6471 7.34635 12.7109 7.16406 12.7109C6.98177 12.7109 6.82682 12.6471 6.69922 12.5195L6.07031 11.918C5.94271 11.7904 5.87891 11.6354 5.87891 11.4531C5.89714 11.2708 5.97005 11.1159 6.09766 10.9883L9.37891 7.84375H1.53125C1.34896 7.84375 1.19401 7.77995 1.06641 7.65234C0.938802 7.52474 0.875 7.36979 0.875 7.1875V6.3125C0.875 6.13021 0.938802 5.97526 1.06641 5.84766C1.19401 5.72005 1.34896 5.65625 1.53125 5.65625H9.37891L6.09766 2.51172C5.97005 2.38411 5.89714 2.22917 5.87891 2.04688C5.87891 1.86458 5.94271 1.70964 6.07031 1.58203Z" fill="#666666"/>
</svg>
